<?xml version="1.0" encoding="utf-8"?>
<!-- Generator: Adobe Illustrator 16.0.0, SVG Export Plug-In . SVG Version: 6.00 Build 0)  -->
<!DOCTYPE svg PUBLIC "-//W3C//DTD SVG 1.1//EN" "http://www.w3.org/Graphics/SVG/1.1/DTD/svg11.dtd">
<svg version="1.1" id="Layer_1" xmlns="http://www.w3.org/2000/svg" xmlns:xlink="http://www.w3.org/1999/xlink" x="0px" y="0px"
	 width="40px" height="40px" viewBox="0 0 40 40" enable-background="new 0 0 40 40" xml:space="preserve">
<g>
	<path fill="#FFFFFF" d="M15.383,10.348c0,0.853,0,5.076,0,5.076H12v5.066l3.383,0.01v16.921h6.77V20.5h5.076c0,0,0-1.667,0-5.076
		c-0.592,0-5.076,0-5.076,0s0-4.497,0-5.076c0-0.582,0.962-1.692,1.691-1.692c0.728,0,1.963,0,3.385,0c0-0.776,0-2.601,0-5.076
		c-1.896,0-4.124,0-5.076,0C15.057,3.579,15.383,9.497,15.383,10.348z"/>
</g>
</svg>
