<?xml version="1.0" encoding="utf-8"?>
<!-- Generator: Adobe Illustrator 16.0.0, SVG Export Plug-In . SVG Version: 6.00 Build 0)  -->
<!DOCTYPE svg PUBLIC "-//W3C//DTD SVG 1.1//EN" "http://www.w3.org/Graphics/SVG/1.1/DTD/svg11.dtd">
<svg version="1.1" id="Layer_1" xmlns="http://www.w3.org/2000/svg" xmlns:xlink="http://www.w3.org/1999/xlink" x="0px" y="0px"
	 width="40px" height="40px" viewBox="0 0 40 40" enable-background="new 0 0 40 40" xml:space="preserve">
<g>
	<path fill="#FFFFFF" d="M35.166,23.749v11.119h-6.385V23.692c0-2.606-0.84-3.192-3.193-3.192c-1.796,0-2.722,0.437-3.192,1.597
		c-0.173,0.414,0,1.017,0,1.596v11.176h-6.387c0,0,0.088-17.336,0-19.157h6.387v3.193c-0.013,0.021,0.012-0.021,0,0l0,0l0,0
		c0.863-1.319,1.335-3.193,4.789-3.193C31.463,15.711,35.166,17.796,35.166,23.749z M8.026,6.132c-2.226,0-3.193,1.447-3.193,3.35
		c0,1.861,1.012,3.036,3.193,3.036l0,0c2.269,0,3.193-1.332,3.193-3.193C11.177,7.423,10.252,6.132,8.026,6.132z M4.833,34.868
		h6.386V15.711H4.833V34.868z"/>
</g>
</svg>
