Sector,Jobrole
Hydrocarbon,Assistant Technician-Drilling (Oil & Gas)
Hydrocarbon,Assistant Technician-Production (Oil & Gas)
Hydrocarbon,Industrial Electrician (Oil & Gas)
Hydrocarbon,Industrial Welder (Oil & Gas)
Hydrocarbon,LPG Delivery Personnel
Hydrocarbon,LPG Mechanic
Hydrocarbon,LPG Supervisor
Hydrocarbon,Pipe Fitter (Oil & Gas)
Hydrocarbon,Pipe Fitter â€“ City Gas Distribution
Hydrocarbon,Retail Outlet Attendant (Oil & Gas)
Hydrocarbon,Retail Outlet Supervisor (Oil & Gas)
Hydrocarbon,Tank Lorry Driver (Petroleum Products)
Rubber,Assembling & Curing Operator-Footwear & Sports Good
Rubber,Autoclave Operator
Rubber,Autoclave Operator- Reclaim Rubber
Rubber,Bead Room Operator
Rubber,Bicycle/Rickshaw Tyre Building Operator - TBM
Rubber,Bicycle/Rickshaw Tyre Building Operator-Mono Band
Rubber,Bladder Assembly Operator
Rubber,Bladder Curing Operator
Rubber,Building Operator-Cables
Rubber,Building Operator-Conveyor Belts
Rubber,Building Operator-Footwear
Rubber,Building Operator-Hoses
Rubber,Building Operator-Rubber Roller
Rubber,Building Operator-Rubber to Metal Bonding
Rubber,Building Operator-Sports Goods
Rubber,Building Operator-V belts for Transmission
Rubber,Calendaring Supervisor
Rubber,Calendering Operator
Rubber,Carbon/Oil Charger Operator
Rubber,Coagulant Bath Operator
Rubber,Compression Moulding Operator
Rubber,Continuous Curing Operator
Rubber,Continuous Foaming Machine Operator
Rubber,Cracker Operator
Rubber,Creel Room Operator
Rubber,Curing Chamber Operator
Rubber,Dip Solution Preparation Operator
Rubber,Dipping Plant Operator
Rubber,Dispatch Operator
Rubber,Dispersion Maker
Rubber,Emulsion Maker
Rubber,Executive Procurement - RSS Trading
Rubber,Extruder Operator
Rubber,Extrusion Supervisor
Rubber,Factory Manager - TSR
Rubber,Feed Extruder Operator
Rubber,Field Assistant - Latex Harvest
Rubber,Field Supervisor - Latex Harvest
Rubber,Final Inspection Operator (Retreaded Tyre)
Rubber,Finishing and Packaging Operator (Latex)
Rubber,Finishing Operator (Latex)
Rubber,Finishing Operator (Non Tyre)
Rubber,Finishing Operator (Tyre)
Rubber,Finishing Supervisor
Rubber,Foam Wrapping Operator
Rubber,Furniture Assembler
Rubber,General Worker - CENEX
Rubber,General Worker - RSS Trading
Rubber,General Worker - Rubber Plantation
Rubber,Grader RSS Trading
Rubber,Grinding Operator
Rubber,Injection Moulding Operator
Rubber,Internal Mixer Operator
Rubber,Junior Rubber Technician / Technical Assistant
Rubber,Kneader Operator
Rubber,Lab Chemist (Latex)
Rubber,Lab Chemist - Batch Release Testing
Rubber,Lab Chemist - Cured Compound Testing
Rubber,Lab Chemist - Finished Product Testing
Rubber,Lab Chemist - Incoming Raw Material Testing
Rubber,Lab Chemist-Rubber
Rubber,Lab Supervisor
Rubber,Laboratory Assistant / Chemist
Rubber,Latex Compounder
Rubber,Latex Compounding Supervisor
Rubber,Latex Dipping Plant Operator
Rubber,Latex Harvest Technician (Tapper)
Rubber,Latex Mixing Operator
Rubber,Latex Thread Extrusion Operator
Rubber,loading and Unloading Operator
Rubber,Machine Operator
Rubber,Manager - Production (CENEX)
Rubber,Manager - Rubber sheeting
Rubber,Manager Quality Assurance (CENEX)
Rubber,Market Analyst cum Supervisor - RSS Trading
Rubber,Material Handling and Storage Operator
Rubber,Mill Operator
Rubber,Mixing Supervisor
Rubber,Mould Cleaning & Inspection Operator
Rubber,Mould Cleaning & Inspection Operator (Latex)
Rubber,Moulding /Curing Supervisor
Rubber,Officer Purchase / Sale (TSR)
Rubber,Operator-Textile Coating
Rubber,Packaging Operator
Rubber,Planetary Mixer Operator
Rubber,Ply Cutting Operator
Rubber,Pneumatic Tyre Moulding Operator
Rubber,Pre & Post-Tyre Moulding Operator
Rubber,Pre and Post Calendering Operator
Rubber,Pre and Post Extruder Operator
Rubber,Pre-refining Operator
Rubber,Processing Assistants - TSR
Rubber,Processing Supervisor - Rubber sheeting
Rubber,Processing Technician - Rubber sheeting
Rubber,QA Supervisor
Rubber,QA Technician (Latex)
Rubber,Quality Control Inspector -Calendering
Rubber,Quality Control Inspector- Extrusion
Rubber,Quality Control Inspector-Dimension Check
Rubber,Quality Control Inspector-Statistical Process Control
Rubber,Quality Control Inspector-Visual Inspection
Rubber,Quality Controller - TSR
Rubber,Radial Building Operator
Rubber,Refining Operator
Rubber,Retreaded Tyre Curing Operator
Rubber,Retreaded Tyre Curing Operator
Rubber,Rotocuring Operator
Rubber,Rubber Adhesive Fabric Dipping Operator
Rubber,Rubber Adhesive/Cement Mixing Operator
Rubber,Rubber Calendering Operator
Rubber,Rubber curing operator
Rubber,Rubber Extruder Operator
Rubber,Rubber Foaming Machine Operator
Rubber,Rubber Internal Mixer Operator
Rubber,Rubber Nursery Manager
Rubber,Rubber Nursery Office Assistant
Rubber,Rubber Nursery Supervisor
Rubber,Rubber Nursery Worker - Budder
Rubber,Rubber Nursery Worker - General
Rubber,Rubber Plantation Manager
Rubber,Rubber Plantation Supervisor
Rubber,Rubber Pre-Mixing Operator
Rubber,Rubber Product Assembler
Rubber,Rubber Product Finishing Operator
Rubber,Rubber Product Reclaim Operator
Rubber,Rubber Product-Quality Assurance Supervisor
Rubber,Rubber Tube Extruder Operator
Rubber,Rubber/Bale cutter
Rubber,Saw Mill Technician
Rubber,Senior Rubber Technician
Rubber,Slitting Operator
Rubber,Solid Tyre Moulding Operator
Rubber,Sorting/Packing Operator (Latex)
Rubber,Stock/Component/Bead Preparation Supervisor
Rubber,Storage Assistant
Rubber,Storage assistant - RSS Trading
Rubber,Storage Operator
Rubber,Straining Operator
Rubber,Stripping Unit Operator
Rubber,Supervisor - CENEX
Rubber,Supervisor - TSR
Rubber,Synthetic Cord Dipping Operator
Rubber,Transfer Moulding Operator
Rubber,Tube Curing Operator
Rubber,Tube Cutting Operator
Rubber,Tube De-manderelling Operator
Rubber,Tube Extrusion Operator
Rubber,Tube Joint Preparation/Curing operator
Rubber,Tube Mandreling Operator
Rubber,Tube Splicing Operator
Rubber,Tyre Balancing Operator
Rubber,Tyre Building Operator - Off the Road Tyre
Rubber,Tyre Building Operator -Passenger Vehicles
Rubber,Tyre Building Operator- Commercial Vehicles
Rubber,Tyre Building Operator-Solid Tyres
Rubber,Tyre Casing Buffing Operator
Rubber,Tyre Casing Inspection Operator
Rubber,Tyre Component Stock Preparation OperatorTyre Component Stock Preparation Operator (Option: Perform steel cord cutting operation)
Rubber,Tyre Fitter
Rubber,Tyre Fitter-Servicing and Maintenance
Rubber,Tyre Inflator
Rubber,Tyre Pre Cure Preparation Operator
Rubber,Tyre Retreading - Building & Curing Operator
Rubber,Tyre Retreading Inspection and Buffing Operator
Rubber,Tyre Tread Preparation and Building Operator
Rubber,Tyre Uniformity Operator
Rubber,Tyre Wheel Balancing Operator
Rubber,Tyre/Tube Repair Operator
Rubber,Valve Applicator
Rubber,Warehouse Supervisor
Rubber,Weighing Operator
Rubber,Whole Tyre Reclaim Operator
Rubber,Wire Cutting Operator
