<?xml version="1.0" encoding="utf-8"?>
<!-- Generator: Adobe Illustrator 21.1.0, SVG Export Plug-In . SVG Version: 6.00 Build 0)  -->
<svg version="1.1" id="Layer_1" xmlns="http://www.w3.org/2000/svg" xmlns:xlink="http://www.w3.org/1999/xlink" x="0px" y="0px"
	 viewBox="0 0 40 24" style="enable-background:new 0 0 40 24;" xml:space="preserve">
<style type="text/css">
	.st0{fill:#009CDE;}
	.st1{fill:#003087;}
</style>
<g>
	<path class="st0" d="M25.9,10.1C25.8,11,25.2,11,24.4,11H24l0.2-1.6c0-0.1,0.1-0.1,0.3-0.1h0.1c0.5,0,0.9,0,1.2,0.3
		C25.9,9.5,26,9.7,25.9,10.1 M25.7,7.8h-2.5c-0.1,0-0.3,0.1-0.4,0.3l-1,6.4c0,0.1,0,0.3,0.1,0.3l0,0h1.3c0.1,0,0.3-0.1,0.3-0.3
		l0.3-1.8c0-0.1,0.1-0.3,0.4-0.3h0.7c1.6,0,2.5-0.7,2.8-2.4c0.1-0.6,0-1.3-0.3-1.6C27.2,7.9,26.6,7.8,25.7,7.8"/>
	<path class="st1" d="M8.2,10.1C8.1,11,7.5,11,6.7,11H6.3l0.3-1.6c0-0.1,0.1-0.1,0.3-0.1H7c0.5,0,0.9,0,1.2,0.3
		C8.2,9.5,8.2,9.7,8.2,10.1 M7.9,7.8H5.3C5.3,7.8,5.1,7.9,5,8.1l-1,6.4c0,0.1,0,0.3,0.1,0.3l0,0h1.2c0.1,0,0.3-0.1,0.4-0.3l0.3-1.8
		c0-0.1,0.1-0.3,0.4-0.3H7c1.6,0,2.5-0.7,2.8-2.4c0.1-0.6,0-1.3-0.3-1.6C9.4,7.9,8.8,7.8,7.9,7.8 M13.7,12.4
		c-0.1,0.6-0.6,1.2-1.4,1.2c-0.4,0-0.6-0.1-0.7-0.4c-0.1-0.3-0.3-0.5-0.1-0.9c0.1-0.6,0.6-1.2,1.4-1.2c0.4,0,0.6,0.1,0.7,0.4
		C13.7,11.7,13.7,12,13.7,12.4 M15.3,10.1h-1.2c-0.1,0-0.1,0.1-0.3,0.1v0.4l-0.1-0.1c-0.3-0.4-0.9-0.5-1.4-0.5c-1.3,0-2.4,1-2.7,2.4
		c-0.1,0.6,0,1.4,0.4,1.8c0.4,0.4,0.9,0.6,1.5,0.6c1,0,1.6-0.6,1.6-0.6v0.4c0,0.1,0,0.3,0.1,0.3l0,0h1c0.1,0,0.3-0.1,0.4-0.3l0.6-4
		C15.6,10.2,15.5,10.1,15.3,10.1L15.3,10.1"/>
	<path class="st0" d="M31.5,12.4c-0.1,0.6-0.6,1.2-1.4,1.2c-0.4,0-0.6-0.1-0.7-0.4c-0.1-0.3-0.3-0.5-0.1-0.9
		c0.1-0.6,0.6-1.2,1.4-1.2c0.4,0,0.6,0.1,0.7,0.4C31.4,11.7,31.5,12,31.5,12.4 M33.1,10.1H32c-0.1,0-0.1,0.1-0.3,0.1v0.4l-0.1-0.1
		c-0.3-0.4-0.9-0.5-1.4-0.5c-1.3,0-2.4,1-2.7,2.4c-0.1,0.6,0,1.4,0.4,1.8c0.4,0.4,0.9,0.6,1.5,0.6c1,0,1.6-0.6,1.6-0.6v0.4
		c0,0.1,0,0.3,0.1,0.3l0,0h1c0.1,0,0.3-0.1,0.4-0.3l0.6-4C33.3,10.2,33.3,10.1,33.1,10.1L33.1,10.1"/>
	<path class="st1" d="M21.7,10.1h-1.2c-0.1,0-0.3,0-0.3,0.1l-1.6,2.4l-0.7-2.2c0-0.1-0.1-0.3-0.4-0.3h-1.2c-0.1,0-0.3,0.1-0.3,0.3
		c0,0,0,0,0,0.1l1.3,3.8L16.1,16c-0.1,0.1,0,0.3,0,0.3h0.1h1.2c0.1,0,0.3,0,0.3-0.1l4-5.8C22,10.2,22,10.1,21.7,10.1
		C21.9,10.1,21.7,10.1,21.7,10.1"/>
	<path class="st0" d="M34.6,7.9l-1,6.5c0,0.1,0,0.3,0.1,0.3l0,0h1c0.1,0,0.3-0.1,0.4-0.3L36,8c0-0.1,0-0.3-0.1-0.3l0,0h-1.2
		C34.7,7.8,34.6,7.8,34.6,7.9"/>
</g>
</svg>
