<?xml version="1.0" encoding="utf-8"?>
<!-- Generator: Adobe Illustrator 21.1.0, SVG Export Plug-In . SVG Version: 6.00 Build 0)  -->
<svg version="1.1" id="Layer_1" xmlns="http://www.w3.org/2000/svg" xmlns:xlink="http://www.w3.org/1999/xlink" x="0px" y="0px"
	 viewBox="0 0 40 24" style="enable-background:new 0 0 40 24;" xml:space="preserve">
<style type="text/css">
	.st0{fill:#F1F2F2;}
	.st1{fill:#0078A9;}
	.st2{fill:none;}
</style>
<g>
	<path class="st0" d="M2.4,11.2h1l0.4,1.1h3.8v-0.8l0.3,0.8h2l0.3-0.8v0.8h9.3v-1.7h0.2c0.1,0,0.2,0,0.2,0.2v1.5h4.8v-0.4
		c0.4,0.2,1,0.4,1.8,0.4h2l0.4-1.1h1l0.4,1.1h3.9v-1l0.6,1h3.1V5.7h-3.1v0.8l-0.5-0.8h-3.2v0.8l-0.4-0.8h-4.3
		c-0.7,0-1.4,0.1-1.9,0.4V5.7h-3v0.4c-0.3-0.3-0.8-0.4-1.3-0.4H9.6L8.8,7.4L8.1,5.7H4.7v0.8L4.3,5.7H1.4L0,8.8v3.4h1.9L2.4,11.2z
		 M24.8,7.2c0.3-0.4,0.9-0.5,1.7-0.5h1.1v1h-1.1c-0.4,0-0.6,0.1-0.9,0.3c-0.2,0.2-0.3,0.6-0.3,1.1c0,0.5,0.1,0.9,0.3,1.1
		c0.2,0.2,0.5,0.2,0.8,0.2h0.5l1.6-3.7h1.7l1.9,4.4V6.7h1.7l2,3.2V6.7h1.1v4.7h-1.6l-2.1-3.5v3.5h-2.3l-0.4-1h-2.3l-0.4,1h-1.3
		c-0.5,0-1.2-0.1-1.6-0.5c-0.4-0.4-0.6-0.9-0.6-1.8C24.2,8.3,24.3,7.7,24.8,7.2z M22.5,6.7h1.1v4.7h-1.1V6.7z M17.4,6.7H20
		c0.6,0,1,0,1.3,0.2c0.4,0.2,0.6,0.5,0.6,1.1c0,0.7-0.5,1.1-0.8,1.2c0.2,0.1,0.4,0.3,0.5,0.4c0.2,0.2,0.2,0.4,0.2,0.8v0.9h-1.1v-0.6
		c0-0.3,0-0.7-0.2-0.9c-0.2-0.2-0.4-0.2-0.8-0.2h-1.2v1.7h-1.1V6.7z M12.9,6.7h3.7v1H14v0.8h2.6v1H14v0.9h2.6v1h-3.7
		C12.9,11.3,12.9,6.7,12.9,6.7z M1.2,11.3H0l2-4.7h1.7l1.9,4.4V6.7h1.8l1.5,3.2l1.4-3.2h1.8v4.7h-1.1V7.7l-1.6,3.7h-1L6.7,7.7v3.7
		H4.4l-0.4-1H1.7L1.2,11.3z"/>
	<polygon class="st0" points="10,15.7 10,16.5 12.5,16.5 12.5,17.5 10,17.5 10,18.4 12.8,18.4 14.1,17 12.8,15.7 	"/>
	<polygon class="st0" points="29.3,7.5 28.6,9.3 30.1,9.3 	"/>
	<polygon class="st0" points="2.1,9.3 3.6,9.3 2.8,7.5 	"/>
	<polygon class="st0" points="17.2,19 17.2,15.2 15.5,17 	"/>
	<path class="st0" d="M20.5,8.6c0.1-0.1,0.2-0.2,0.2-0.4c0-0.2-0.1-0.3-0.2-0.4c-0.1-0.1-0.4-0.1-0.6-0.1h-1.4v1h1.4
		C20.1,8.7,20.3,8.7,20.5,8.6z"/>
	<path class="st0" d="M25.2,15.8c-0.1-0.1-0.3-0.1-0.5-0.1h-1.4v1.1l1.4,0c0.2,0,0.4,0,0.5-0.1c0.1-0.1,0.2-0.3,0.2-0.5
		C25.4,16,25.3,15.8,25.2,15.8z"/>
	<path class="st0" d="M19.8,15.7h-1.5v1.2h1.5c0.4,0,0.7-0.2,0.7-0.6S20.2,15.7,19.8,15.7z"/>
	<path class="st1" d="M34,16.5h-0.6c-0.2,0-0.3,0-0.4-0.1c-0.1-0.1-0.2-0.2-0.2-0.3c0-0.2,0-0.3,0.2-0.4c0.1-0.1,0.2-0.1,0.4-0.1
		h2.1v-1h-2.2c-1.2,0-1.6,0.7-1.6,1.4c0,1.5,1.3,1.4,2.3,1.4c0.2,0,0.3,0,0.4,0.1c0.1,0.1,0.1,0.2,0.1,0.3c0,0.1-0.1,0.2-0.1,0.3
		c-0.1,0.1-0.2,0.1-0.4,0.1h-2.2v1h2.2c1.1,0,1.8-0.5,1.8-1.5c0-0.5-0.1-0.8-0.3-1C35,16.7,34.6,16.5,34,16.5z"/>
	<path class="st1" d="M18.5,9.6h1.2c0.4,0,0.7,0,0.8,0.2c0.2,0.2,0.2,0.6,0.2,0.9v0.6h1.1v-0.9c0-0.4,0-0.6-0.2-0.8
		c-0.1-0.1-0.3-0.3-0.5-0.4c0.3-0.1,0.8-0.5,0.8-1.2c0-0.5-0.2-0.8-0.6-1.1C21,6.7,20.5,6.7,20,6.7h-2.6v4.7h1.1L18.5,9.6L18.5,9.6z
		 M18.5,7.6h1.4c0.2,0,0.4,0,0.6,0.1c0.1,0.1,0.2,0.2,0.2,0.4c0,0.2-0.1,0.4-0.2,0.4c-0.2,0.1-0.3,0.1-0.6,0.1h-1.4V7.6z"/>
	<rect x="22.5" y="6.7" class="st1" width="1.1" height="4.7"/>
	<path class="st1" d="M26.4,11.3h1.3l0.4-1h2.3l0.4,1h2.3V7.8l2.1,3.5h1.6V6.7h-1.1v3.2l-2-3.2h-1.7v4.4l-1.9-4.4h-1.7l-1.6,3.7
		h-0.5c-0.3,0-0.6-0.1-0.8-0.2c-0.2-0.2-0.3-0.6-0.3-1.1c0-0.5,0.1-0.9,0.3-1.1c0.2-0.2,0.5-0.3,0.9-0.3h1.1v-1h-1.1
		c-0.8,0-1.4,0.2-1.7,0.5c-0.5,0.5-0.6,1.1-0.6,1.8c0,0.8,0.2,1.4,0.6,1.8C25.2,11.2,25.9,11.3,26.4,11.3z M29.3,7.5l0.8,1.8h-1.5
		L29.3,7.5z"/>
	<path class="st1" d="M19.8,14.7h-3.6l-1.4,1.5l-1.4-1.5H8.9v4.7h4.4l1.4-1.5l1.4,1.5h2.2v-1.6h1.4c1,0,1.9-0.3,1.9-1.6
		C21.6,15,20.6,14.7,19.8,14.7z M12.8,18.4H10v-0.9h2.5v-0.9H10v-0.9h2.8l1.2,1.4L12.8,18.4z M17.2,19L15.5,17l1.7-1.8V19z
		 M19.8,16.9h-1.5v-1.2h1.5c0.4,0,0.7,0.2,0.7,0.6C20.5,16.6,20.2,16.9,19.8,16.9z"/>
	<polygon class="st1" points="16.6,10.4 14,10.4 14,9.4 16.6,9.4 16.6,8.5 14,8.5 14,7.6 16.6,7.6 16.6,6.7 12.9,6.7 12.9,11.3 
		16.6,11.3 	"/>
	<path class="st1" d="M26.7,16c0-0.5-0.2-0.8-0.6-1c-0.4-0.2-0.8-0.2-1.4-0.2h-2.6v4.7h1.1v-1.7h1.2c0.4,0,0.6,0,0.8,0.2
		c0.2,0.2,0.2,0.6,0.2,0.9v0.6h1.1v-0.9c0-0.4,0-0.6-0.2-0.9c-0.1-0.1-0.3-0.3-0.6-0.4C26.2,17.1,26.7,16.7,26.7,16z M25.2,16.6
		c-0.2,0.1-0.3,0.1-0.5,0.1l-1.4,0v-1.1h1.4c0.2,0,0.4,0,0.5,0.1c0.1,0.1,0.2,0.2,0.2,0.4C25.4,16.4,25.3,16.5,25.2,16.6z"/>
	<polygon class="st1" points="27.3,19.4 31,19.4 31,18.4 28.4,18.4 28.4,17.5 31,17.5 31,16.5 28.4,16.5 28.4,15.7 31,15.7 31,14.7 
		27.3,14.7 	"/>
	<path class="st1" d="M4.4,11.3h2.3V7.7l1.6,3.7h1l1.6-3.7v3.7h1.1V6.7h-1.8L8.9,9.8L7.4,6.7H5.6v4.4L3.7,6.7H2l-2,4.7h1.2l0.4-1H4
		L4.4,11.3z M2.1,9.3l0.8-1.8l0.8,1.8H2.1z"/>
	<path class="st2" d="M26.7,16c0-0.5-0.2-0.8-0.6-1c-0.4-0.2-0.8-0.2-1.4-0.2h-2.6v4.7h1.1v-1.7h1.2c0.4,0,0.6,0,0.8,0.2
		c0.2,0.2,0.2,0.6,0.2,0.9v0.6h1.1v-0.9c0-0.4,0-0.6-0.2-0.9c-0.1-0.1-0.3-0.3-0.6-0.4C26.2,17.1,26.7,16.7,26.7,16z"/>
	<polygon class="st2" points="27.3,19.4 31,19.4 31,18.4 28.4,18.4 28.4,17.5 31,17.5 31,16.5 28.4,16.5 28.4,15.7 31,15.7 31,14.7 
		27.3,14.7 	"/>
	<path class="st2" d="M19.8,14.7h-3.6l-1.4,1.5l-1.4-1.5H8.9v4.7h4.4l1.4-1.5l1.4,1.5h2.2v-1.6h1.4c1,0,1.9-0.3,1.9-1.6
		C21.6,15,20.6,14.7,19.8,14.7z"/>
	<path class="st2" d="M35.9,16.1c0,1.5,1.3,1.4,2.3,1.4c0.2,0,0.3,0,0.4,0.1c0.1,0.1,0.1,0.2,0.1,0.3c0,0.1-0.1,0.2-0.1,0.3
		c-0.1,0.1-0.2,0.1-0.4,0.1h-2.2v1h2.2c0.7,0,1.2-0.2,1.5-0.6V17c0,0,0-0.1-0.1-0.1c-0.3-0.2-0.7-0.4-1.3-0.4h-0.6
		c-0.2,0-0.3,0-0.4-0.1c-0.1-0.1-0.2-0.2-0.2-0.3c0-0.2,0.1-0.3,0.2-0.4c0.1-0.1,0.2-0.1,0.4-0.1h2v-1h-2.2
		C36.4,14.7,35.9,15.4,35.9,16.1z"/>
	<rect x="39.7" y="14.7" class="st2" width="0" height="1"/>
	<path class="st1" d="M39.9,18.6C39.9,18.5,39.9,18.5,39.9,18.6c0.1-0.1,0.1-0.2,0.1-0.3c0,0,0-0.1,0-0.1c0-0.1,0-0.2,0-0.3
		c0-0.1,0-0.2,0-0.3c0,0,0-0.1,0-0.1c0,0,0-0.1,0-0.1c0-0.1,0-0.1-0.1-0.2c0,0,0,0,0,0c0-0.1-0.1-0.2-0.2-0.3
		c-0.3-0.2-0.7-0.4-1.3-0.4h-0.6c-0.2,0-0.3,0-0.4-0.1c-0.1-0.1-0.2-0.2-0.2-0.3c0-0.2,0.1-0.3,0.2-0.4c0.1-0.1,0.2-0.1,0.4-0.1h2.1
		v-1h-2.2c-1.2,0-1.6,0.7-1.6,1.4c0,1.5,1.3,1.4,2.3,1.4c0.2,0,0.3,0,0.4,0.1c0.1,0.1,0.1,0.2,0.1,0.3c0,0.1-0.1,0.2-0.1,0.3
		c-0.1,0.1-0.2,0.1-0.4,0.1h-2.2v1h2.2c0.7,0,1.2-0.2,1.5-0.6C39.8,18.7,39.8,18.6,39.9,18.6z"/>
	<path class="st2" d="M34,16.5h-0.6c-0.2,0-0.3,0-0.4-0.1c-0.1-0.1-0.2-0.2-0.2-0.3c0-0.2,0-0.3,0.2-0.4c0.1-0.1,0.2-0.1,0.4-0.1
		h2.1v-1h-2.2c-1.2,0-1.6,0.7-1.6,1.4c0,1.5,1.3,1.4,2.3,1.4c0.2,0,0.3,0,0.4,0.1c0.1,0.1,0.1,0.2,0.1,0.3c0,0.1-0.1,0.2-0.1,0.3
		c-0.1,0.1-0.2,0.1-0.4,0.1h-2.2v1h2.2c1.1,0,1.8-0.5,1.8-1.5c0-0.5-0.1-0.8-0.3-1C35,16.7,34.6,16.5,34,16.5z"/>
	<path class="st1" d="M37.7,13.8h2.1H40V0.4c0-0.3-0.1-0.5-0.3-0.7c-0.2-0.3-0.6-0.4-1-0.4H1.2C0.5-0.7,0-0.2,0,0.4v8.4l1.4-3.1h2.9
		l0.4,0.8V5.7h3.4l0.8,1.7l0.7-1.7h10.8c0.5,0,0.9,0.1,1.3,0.4V5.7h3v0.4c0.5-0.3,1.1-0.4,1.9-0.4h4.3l0.4,0.8V5.7h3.2l0.5,0.8V5.7
		h3.1v6.5h-3.1l-0.6-1v1h-3.9l-0.4-1.1h-1l-0.4,1.1h-2c-0.8,0-1.4-0.2-1.8-0.4v0.4h-4.8v-1.5c0-0.2,0-0.2-0.2-0.2h-0.2v1.7h-9.3
		v-0.8l-0.3,0.8h-2l-0.3-0.8v0.8H3.7l-0.4-1.1h-1l-0.4,1.1H0v11.3c0,0.6,0.5,1.1,1.2,1.1h37.6c0.4,0,0.7-0.2,1-0.4
		c0.2-0.2,0.3-0.4,0.3-0.7v-3.8c0,0.2-0.3,0.2-0.3,0.2c-0.4,0.2-1,0.3-1.6,0.3h-2.9v-0.4c-0.3,0.3-0.9,0.4-1.5,0.4h-9.1v-1.5
		c0-0.2,0-0.2-0.2-0.2h-0.2v1.7h-3v-1.8c-0.5,0.2-1.1,0.2-1.6,0.2h-0.3v1.5h-3.7l-0.9-1l-1,1H7.9v-6.5h6l0.9,1l0.9-1h4
		c0.5,0,1.2,0.1,1.6,0.4v-0.4h3.6c0.4,0,1.1,0.1,1.5,0.4v-0.4h5.4v0.4c0.3-0.3,0.9-0.4,1.4-0.4h3v0.4C36.6,13.9,37.1,13.8,37.7,13.8
		z"/>
	<path class="st0" d="M39.7,13.8h-2.1c-0.6,0-1.1,0.2-1.4,0.4v-0.4h-3c-0.5,0-1.1,0.1-1.4,0.4v-0.4h-5.4v0.4
		c-0.5-0.3-1.2-0.4-1.5-0.4h-3.6v0.4c-0.3-0.3-1.1-0.4-1.6-0.4h-4l-0.9,1l-0.9-1h-6v6.5h5.9l1-1l0.9,1h3.7v-1.5h0.3
		c0.5,0,1.1,0,1.6-0.2v1.8h3v-1.7h0.2c0.2,0,0.2,0,0.2,0.2v1.5h9.1c0.6,0,1.2-0.1,1.5-0.4v0.4h2.9c0.6,0,1.2-0.1,1.6-0.3
		c0,0,0.2-0.1,0.3-0.2v-1.9c0,0.4-0.1,0.7-0.3,0.9c-0.3,0.4-0.8,0.6-1.5,0.6h-2.2v-1h2.2c0.2,0,0.4,0,0.4-0.1
		c0.1-0.1,0.1-0.2,0.1-0.3c0-0.1-0.1-0.3-0.1-0.3c-0.1-0.1-0.2-0.1-0.4-0.1c-1,0-2.3,0-2.3-1.4c0-0.7,0.4-1.4,1.6-1.4h2.2h0v1h0h-2
		c-0.2,0-0.3,0-0.4,0.1c-0.1,0.1-0.2,0.2-0.2,0.4c0,0.2,0.1,0.3,0.2,0.3c0.1,0,0.3,0.1,0.4,0.1h0.6c0.6,0,1,0.1,1.3,0.4
		c0,0,0,0.1,0.1,0.1c0.2,0.2,0.3,0.5,0.3,0.9v-4.1C40,13.8,39.7,13.8,39.7,13.8z M19.7,17.8h-1.4v1.6h-2.2l-1.4-1.5l-1.4,1.5H8.9
		v-4.7h4.5l1.4,1.5l1.4-1.5h3.6c0.9,0,1.9,0.3,1.9,1.5C21.6,17.5,20.7,17.8,19.7,17.8z M26.4,17.6c0.1,0.2,0.2,0.4,0.2,0.9v0.9h-1.1
		v-0.6c0-0.3,0-0.7-0.2-0.9c-0.2-0.2-0.4-0.2-0.8-0.2h-1.2v1.7h-1.1v-4.7h2.6c0.6,0,1,0,1.4,0.2c0.4,0.2,0.6,0.5,0.6,1
		c0,0.7-0.5,1.1-0.8,1.2C26.1,17.3,26.3,17.5,26.4,17.6z M31,15.7h-2.6v0.9H31v0.9h-2.6v0.9H31v1h-3.7v-4.7H31V15.7z M33.9,19.4
		h-2.2v-1h2.2c0.2,0,0.3,0,0.4-0.1c0.1-0.1,0.1-0.2,0.1-0.3s-0.1-0.3-0.1-0.3c-0.1-0.1-0.2-0.1-0.4-0.1c-1,0-2.3,0-2.3-1.4
		c0-0.7,0.4-1.4,1.6-1.4h2.2v1h-2.1c-0.2,0-0.3,0-0.4,0.1c-0.1,0.1-0.2,0.2-0.2,0.4c0,0.2,0.1,0.3,0.2,0.3c0.1,0,0.3,0.1,0.4,0.1H34
		c0.6,0,1,0.1,1.3,0.4c0.2,0.2,0.3,0.5,0.3,1C35.6,18.9,35,19.4,33.9,19.4z"/>
</g>
</svg>
