<?xml version="1.0" encoding="utf-8"?>
<!-- Generator: Adobe Illustrator 16.0.0, SVG Export Plug-In . SVG Version: 6.00 Build 0)  -->
<!DOCTYPE svg PUBLIC "-//W3C//DTD SVG 1.1//EN" "http://www.w3.org/Graphics/SVG/1.1/DTD/svg11.dtd">
<svg version="1.1" id="Layer_1" xmlns="http://www.w3.org/2000/svg" xmlns:xlink="http://www.w3.org/1999/xlink" x="0px" y="0px"
	 width="32px" height="32px" viewBox="0 0 32 32" enable-background="new 0 0 32 32" xml:space="preserve">
<g>
	<g>
		<path fill="#FFFFFF" d="M24.894,6.318h2.369v18.808h-2.369V6.318z M20.176,6.999l-0.328,0.103
			c-0.411,0.129-0.894-0.051-1.06-0.396c-0.08-0.167-0.084-0.351-0.011-0.519c0.085-0.195,0.265-0.348,0.493-0.418l3.699-1.152
			l0.45,3.295c0.025,0.168-0.021,0.34-0.133,0.481c-0.137,0.175-0.355,0.288-0.601,0.312c-0.029,0.002-0.063,0.004-0.094,0.004
			c-0.419,0-0.774-0.267-0.827-0.619l-0.057-0.499C17.434,13.51,7.589,19.854,7.162,20.128c-0.145,0.093-0.319,0.143-0.502,0.143
			c-0.248,0-0.48-0.092-0.638-0.252c-0.146-0.146-0.213-0.332-0.192-0.524c0.022-0.199,0.142-0.382,0.328-0.5
			C6.258,18.93,16.008,12.626,20.176,6.999z M22.979,10.496v14.629h-2.369V10.496H22.979z M18.836,14.843v10.283h-2.37V14.843
			H18.836z M14.551,19.358v5.767h-2.369v-5.767H14.551z M10.021,21.618v3.507H7.652v-3.507H10.021z M28,27.383H4v-1.758h24V27.383
			L28,27.383z"/>
	</g>
</g>
</svg>
