<svg xmlns="http://www.w3.org/2000/svg" viewBox="692 690 32 32">
  <defs>
    <style>
      .cls-1 {
        fill: none;
      }

      .cls-2 {
        fill: #ccd1d9;
        fill-rule: evenodd;
      }
    </style>
  </defs>
  <g id="ic_hiring_requests" transform="translate(692.5 690)">
    <path id="Path_22" data-name="Path 22" class="cls-2" d="M12,28C6.3,28,2,25.427,2,22.016a4.773,4.773,0,0,1,2.42-3.971l1.024,1.534a3.194,3.194,0,0,0-1.615,2.438C3.829,24.3,7.495,26.15,12,26.15s8.172-1.854,8.172-4.133a3.2,3.2,0,0,0-1.615-2.438l1.024-1.593A4.853,4.853,0,0,1,22,22.016C22,25.427,17.7,28,12,28Zm0-2.9c-3.848,0-6.535-1.46-6.535-3.552,0-.719.339-2.052,2.6-2.909l.639,1.734A1.864,1.864,0,0,0,7.292,21.55c0,.71,1.791,1.7,4.707,1.7s4.707-.991,4.707-1.7a1.863,1.863,0,0,0-1.416-1.174l.639-1.734c2.267.856,2.6,2.19,2.6,2.909C18.536,23.642,15.848,25.1,12,25.1Zm0-2.9a2.729,2.729,0,0,1-2.709-2.743v-.728a2.554,2.554,0,0,0-.646-1.482h0a4,4,0,0,1-1.127-2.871,4.555,4.555,0,0,1,3.3-4.4,3.068,3.068,0,1,1,2.354,0,4.557,4.557,0,0,1,3.3,4.4,4.025,4.025,0,0,1-1.117,2.864,3.08,3.08,0,0,0-.651,1.49v.735A2.729,2.729,0,0,1,12,22.206ZM9.882,15.884a4.368,4.368,0,0,1,1.237,2.844v.735a.881.881,0,1,0,1.761,0v-.734a4.375,4.375,0,0,1,1.239-2.85,2.179,2.179,0,0,0,.528-1.5,2.652,2.652,0,1,0-5.3,0,2.172,2.172,0,0,0,.535,1.505ZM12,5.85a1.255,1.255,0,1,0,1.24,1.255A1.255,1.255,0,0,0,12,5.85Z" transform="translate(3.5)"/>
  </g>
</svg>
