<?xml version="1.0" encoding="utf-8"?>
<!-- Generator: Adobe Illustrator 21.1.0, SVG Export Plug-In . SVG Version: 6.00 Build 0)  -->
<svg version="1.1" id="Layer_1" xmlns="http://www.w3.org/2000/svg" xmlns:xlink="http://www.w3.org/1999/xlink" x="0px" y="0px"
	 viewBox="0 0 20 20" style="enable-background:new 0 0 20 20;" xml:space="preserve">
<style type="text/css">
	.st0{opacity:0.2;}
	.st1{fill:#6C615E;}
</style>
<g class="st0">
	<path class="st1" d="M14.5,17.9c0.4,0,0.8-0.4,0.8-0.8c0,0,0-0.1,0-0.1l-0.8-4.7l3.3-3.4c0.3-0.3,0.3-0.8,0-1.1
		c-0.1-0.1-0.3-0.2-0.4-0.2l-4.6-0.7l-2.1-4.3C10.5,2.2,10,2,9.7,2.2C9.5,2.3,9.4,2.4,9.3,2.5L7.2,6.8L2.7,7.5C2.2,7.6,1.9,8,2,8.4
		c0,0.2,0.1,0.3,0.2,0.4l3.3,3.4L4.8,17c-0.1,0.4,0.2,0.8,0.6,0.9c0.2,0,0.3,0,0.5-0.1l4.1-2.2l4.1,2.2
		C14.2,17.9,14.4,17.9,14.5,17.9L14.5,17.9z"/>
</g>
</svg>
